entityid	firstname	lastname	phonenumber	context	protocol	username	password	profileclient	enablehint	enablexfer	
1	acd60	acd60	2710	loadtest	sip	acd60	0000	7	1	1	60
1	acd61	acd61	2711	loadtest	sip	acd61	0000	7	1	1	61
1	acd62	acd62	2712	loadtest	sip	acd62	0000	7	1	1	62
1	acd63	acd63	2713	loadtest	sip	acd63	0000	7	1	1	63
1	acd64	acd64	2714	loadtest	sip	acd64	0000	7	1	1	64
1	acd65	acd65	2715	loadtest	sip	acd65	0000	7	1	1	65
1	acd66	acd66	2716	loadtest	sip	acd66	0000	7	1	1	66
1	acd67	acd67	2717	loadtest	sip	acd67	0000	7	1	1	67
1	acd68	acd68	2718	loadtest	sip	acd68	0000	7	1	1	68
1	acd69	acd69	2719	loadtest	sip	acd69	0000	7	1	1	69
1	acd70	acd70	2720	loadtest	sip	acd70	0000	7	1	1	70
1	acd71	acd71	2721	loadtest	sip	acd71	0000	7	1	1	71
1	acd72	acd72	2722	loadtest	sip	acd72	0000	7	1	1	72
1	acd73	acd73	2723	loadtest	sip	acd73	0000	7	1	1	73
1	acd74	acd74	2724	loadtest	sip	acd74	0000	7	1	1	74
1	acd75	acd75	2725	loadtest	sip	acd75	0000	7	1	1	75
1	acd76	acd76	2726	loadtest	sip	acd76	0000	7	1	1	76
1	acd77	acd77	2727	loadtest	sip	acd77	0000	7	1	1	77
1	acd78	acd78	2728	loadtest	sip	acd78	0000	7	1	1	78
1	acd79	acd79	2729	loadtest	sip	acd79	0000	7	1	1	79
1	acd80	acd80	2730	loadtest	sip	acd80	0000	7	1	1	80
1	acd81	acd81	2731	loadtest	sip	acd81	0000	7	1	1	81
1	acd82	acd82	2732	loadtest	sip	acd82	0000	7	1	1	82
1	acd83	acd83	2733	loadtest	sip	acd83	0000	7	1	1	83
1	acd84	acd84	2734	loadtest	sip	acd84	0000	7	1	1	84
1	acd85	acd85	2735	loadtest	sip	acd85	0000	7	1	1	85
1	acd86	acd86	2736	loadtest	sip	acd86	0000	7	1	1	86
1	acd87	acd87	2737	loadtest	sip	acd87	0000	7	1	1	87
1	acd88	acd88	2738	loadtest	sip	acd88	0000	7	1	1	88
1	acd89	acd89	2739	loadtest	sip	acd89	0000	7	1	1	89
1	acd90	acd90	2740	loadtest	sip	acd90	0000	7	1	1	90
1	acd91	acd91	2741	loadtest	sip	acd91	0000	7	1	1	91
1	acd92	acd92	2742	loadtest	sip	acd92	0000	7	1	1	92
1	acd93	acd93	2743	loadtest	sip	acd93	0000	7	1	1	93
1	acd94	acd94	2744	loadtest	sip	acd94	0000	7	1	1	94
1	acd95	acd95	2745	loadtest	sip	acd95	0000	7	1	1	95
1	acd96	acd96	2746	loadtest	sip	acd96	0000	7	1	1	96
1	acd97	acd97	2747	loadtest	sip	acd97	0000	7	1	1	97
1	acd98	acd98	2748	loadtest	sip	acd98	0000	7	1	1	98
1	acd99	acd99	2749	loadtest	sip	acd99	0000	7	1	1	99
1	acd100	acd100	2750	loadtest	sip	acd100	0000	7	1	1	100
1	acd101	acd101	2751	loadtest	sip	acd101	0000	7	1	1	101
1	acd102	acd102	2752	loadtest	sip	acd102	0000	7	1	1	102
1	acd103	acd103	2753	loadtest	sip	acd103	0000	7	1	1	103
1	acd104	acd104	2754	loadtest	sip	acd104	0000	7	1	1	104
1	acd105	acd105	2755	loadtest	sip	acd105	0000	7	1	1	105
1	acd106	acd106	2756	loadtest	sip	acd106	0000	7	1	1	106
1	acd107	acd107	2757	loadtest	sip	acd107	0000	7	1	1	107
1	acd108	acd108	2758	loadtest	sip	acd108	0000	7	1	1	108
1	acd109	acd109	2759	loadtest	sip	acd109	0000	7	1	1	109
1	acd110	acd110	2760	loadtest	sip	acd110	0000	7	1	1	110
1	acd111	acd111	2761	loadtest	sip	acd111	0000	7	1	1	111
1	acd112	acd112	2762	loadtest	sip	acd112	0000	7	1	1	112
1	acd113	acd113	2763	loadtest	sip	acd113	0000	7	1	1	113
1	acd114	acd114	2764	loadtest	sip	acd114	0000	7	1	1	114
1	acd115	acd115	2765	loadtest	sip	acd115	0000	7	1	1	115
1	acd116	acd116	2766	loadtest	sip	acd116	0000	7	1	1	116
1	acd117	acd117	2767	loadtest	sip	acd117	0000	7	1	1	117
1	acd118	acd118	2768	loadtest	sip	acd118	0000	7	1	1	118
1	acd119	acd119	2769	loadtest	sip	acd119	0000	7	1	1	119
1	acd120	acd120	2770	loadtest	sip	acd120	0000	7	1	1	120
1	acd121	acd121	2771	loadtest	sip	acd121	0000	7	1	1	121
1	acd122	acd122	2772	loadtest	sip	acd122	0000	7	1	1	122
1	acd123	acd123	2773	loadtest	sip	acd123	0000	7	1	1	123
1	acd124	acd124	2774	loadtest	sip	acd124	0000	7	1	1	124
1	acd125	acd125	2775	loadtest	sip	acd125	0000	7	1	1	125
1	acd126	acd126	2776	loadtest	sip	acd126	0000	7	1	1	126
1	acd127	acd127	2777	loadtest	sip	acd127	0000	7	1	1	127
1	acd128	acd128	2778	loadtest	sip	acd128	0000	7	1	1	128
1	acd129	acd129	2779	loadtest	sip	acd129	0000	7	1	1	129
1	acd130	acd130	2780	loadtest	sip	acd130	0000	7	1	1	130
1	acd131	acd131	2781	loadtest	sip	acd131	0000	7	1	1	131
1	acd132	acd132	2782	loadtest	sip	acd132	0000	7	1	1	132
1	acd133	acd133	2783	loadtest	sip	acd133	0000	7	1	1	133
1	acd134	acd134	2784	loadtest	sip	acd134	0000	7	1	1	134
1	acd135	acd135	2785	loadtest	sip	acd135	0000	7	1	1	135
1	acd136	acd136	2786	loadtest	sip	acd136	0000	7	1	1	136
1	acd137	acd137	2787	loadtest	sip	acd137	0000	7	1	1	137
1	acd138	acd138	2788	loadtest	sip	acd138	0000	7	1	1	138
1	acd139	acd139	2789	loadtest	sip	acd139	0000	7	1	1	139
1	acd140	acd140	2790	loadtest	sip	acd140	0000	7	1	1	140
1	acd141	acd141	2791	loadtest	sip	acd141	0000	7	1	1	141
1	acd142	acd142	2792	loadtest	sip	acd142	0000	7	1	1	142
1	acd143	acd143	2793	loadtest	sip	acd143	0000	7	1	1	143
1	acd144	acd144	2794	loadtest	sip	acd144	0000	7	1	1	144
1	acd145	acd145	2795	loadtest	sip	acd145	0000	7	1	1	145
1	acd146	acd146	2796	loadtest	sip	acd146	0000	7	1	1	146
1	acd147	acd147	2797	loadtest	sip	acd147	0000	7	1	1	147
1	acd148	acd148	2798	loadtest	sip	acd148	0000	7	1	1	148
1	acd149	acd149	2799	loadtest	sip	acd149	0000	7	1	1	149
1	acd150	acd150	2800	loadtest	sip	acd150	0000	7	1	1	150
